[gd_scene load_steps=16 format=2]

[ext_resource path="res://stages/base.tscn" type="PackedScene" id=1]
[ext_resource path="res://tileset/TileMapAuto.tscn" type="PackedScene" id=2]
[ext_resource path="res://entities/actors/player/PlayerWithUmbrella.tscn" type="PackedScene" id=3]
[ext_resource path="res://entities/devices/locked_door/locked_door.tscn" type="PackedScene" id=4]
[ext_resource path="res://entities/hazards/death_zone/death_zone.tscn" type="PackedScene" id=5]
[ext_resource path="res://entities/devices/door/door.tscn" type="PackedScene" id=6]
[ext_resource path="res://entities/devices/spawner/spawner.tscn" type="PackedScene" id=7]
[ext_resource path="res://entities/hazards/projectile/arrow/Arrow.tscn" type="PackedScene" id=8]
[ext_resource path="res://entities/platform/Platform.tscn" type="PackedScene" id=9]
[ext_resource path="res://entities/devices/switch/switch.tscn" type="PackedScene" id=10]
[ext_resource path="res://entities/collectables/Keys/key.tscn" type="PackedScene" id=11]
[ext_resource path="res://entities/goals/basic_goal/goal.tscn" type="PackedScene" id=12]
[ext_resource path="res://entities/collectables/Coins/coin.tscn" type="PackedScene" id=13]

[sub_resource type="RectangleShape2D" id=1]

custom_solver_bias = 0.0
extents = Vector2( 32, 224 )

[sub_resource type="RectangleShape2D" id=2]

custom_solver_bias = 0.0
extents = Vector2( 112, 224 )

[node name="Stage" index="0" instance=ExtResource( 1 )]

[node name="TileMapAuto" parent="Tiles" index="0" instance=ExtResource( 2 )]

modulate = Color( 0.10676, 0.0568085, 0.285156, 1 )
scale = Vector2( 0.5, 0.5 )
tile_data = PoolIntArray( -1966037, 0, 1, -1966036, 0, 65536, -1966035, 0, 65536, -1966034, 0, 65536, -1966033, 0, 65536, -1966032, 0, 65536, -1966031, 0, 65536, -1966030, 0, 65536, -1966029, 0, 65536, -1966028, 0, 65536, -1966027, 0, 65536, -1966026, 0, 65536, -1966025, 0, 65536, -1966024, 0, 65536, -1966023, 0, 65536, -1966022, 0, 65536, -1966021, 0, 65536, -1966020, 0, 65536, -1966019, 0, 2, -1900501, 0, 131073, -1900500, 0, 196619, -1900499, 0, 196619, -1900498, 0, 196619, -1900497, 0, 196619, -1900496, 0, 196619, -1900495, 0, 196619, -1900494, 0, 196619, -1900493, 0, 196619, -1900492, 0, 196619, -1900491, 0, 196619, -1900490, 0, 196619, -1900489, 0, 196619, -1900488, 0, 196619, -1900487, 0, 196619, -1900486, 0, 196619, -1900485, 0, 196619, -1900484, 0, 196619, -1900483, 0, 131074, -1834965, 0, 131073, -1834964, 0, 196619, -1834963, 0, 196619, -1834962, 0, 196619, -1834961, 0, 196619, -1834960, 0, 196619, -1834959, 0, 196619, -1834958, 0, 196619, -1834957, 0, 196619, -1834956, 0, 196619, -1834955, 0, 196619, -1834954, 0, 196619, -1834953, 0, 196619, -1834952, 0, 196619, -1834951, 0, 196619, -1834950, 0, 196619, -1834949, 0, 196619, -1834948, 0, 196619, -1834947, 0, 131074, -1769429, 0, 131073, -1769428, 0, 196619, -1769427, 0, 196619, -1769426, 0, 196619, -1769425, 0, 196619, -1769424, 0, 196619, -1769423, 0, 196619, -1769422, 0, 196619, -1769421, 0, 196619, -1769420, 0, 196619, -1769419, 0, 196619, -1769418, 0, 196619, -1769417, 0, 196619, -1769416, 0, 196619, -1769415, 0, 196619, -1769414, 0, 196619, -1769413, 0, 196619, -1769412, 0, 196619, -1769411, 0, 131074, -1703893, 0, 131073, -1703892, 0, 196619, -1703891, 0, 196619, -1703890, 0, 196619, -1703889, 0, 196619, -1703888, 0, 196619, -1703887, 0, 196619, -1703886, 0, 196619, -1703885, 0, 196619, -1703884, 0, 196619, -1703883, 0, 196619, -1703882, 0, 196619, -1703881, 0, 196619, -1703880, 0, 196619, -1703879, 0, 196619, -1703878, 0, 196619, -1703877, 0, 196619, -1703876, 0, 196619, -1703875, 0, 131074, -1638357, 0, 131073, -1638356, 0, 196619, -1638355, 0, 196619, -1638354, 0, 196619, -1638353, 0, 196619, -1638352, 0, 196619, -1638351, 0, 196619, -1638350, 0, 196619, -1638349, 0, 196619, -1638348, 0, 196619, -1638347, 0, 196619, -1638346, 0, 196619, -1638345, 0, 196619, -1638344, 0, 196619, -1638343, 0, 196619, -1638342, 0, 196619, -1638341, 0, 196619, -1638340, 0, 196619, -1638339, 0, 131074, -1572821, 0, 131073, -1572820, 0, 196619, -1572819, 0, 196619, -1572818, 0, 196619, -1572817, 0, 196619, -1572816, 0, 196619, -1572815, 0, 196619, -1572814, 0, 196619, -1572813, 0, 196619, -1572812, 0, 196619, -1572811, 0, 196619, -1572810, 0, 196619, -1572809, 0, 196619, -1572808, 0, 196619, -1572807, 0, 196619, -1572806, 0, 196619, -1572805, 0, 196619, -1572804, 0, 196619, -1572803, 0, 131074, -1507285, 0, 65537, -1507284, 0, 131072, -1507283, 0, 131072, -1507282, 0, 131072, -1507281, 0, 131072, -1507280, 0, 131072, -1507279, 0, 131072, -1507278, 0, 131072, -1507277, 0, 131072, -1507276, 0, 131072, -1507275, 0, 4, -1507274, 0, 196619, -1507273, 0, 196619, -1507272, 0, 196619, -1507271, 0, 196619, -1507270, 0, 196619, -1507269, 0, 196619, -1507268, 0, 196619, -1507267, 0, 131074, -1441772, 0, 1, -1441771, 0, 65536, -1441770, 0, 2, -1441766, 0, 196608, -1441765, 0, 196610, -1441761, 0, 1, -1441760, 0, 65536, -1441759, 0, 65536, -1441758, 0, 65536, -1441757, 0, 65536, -1441756, 0, 65536, -1441755, 0, 65536, -1441754, 0, 2, -1441739, 0, 131073, -1441738, 0, 196619, -1441737, 0, 196619, -1441736, 0, 196619, -1441735, 0, 196619, -1441734, 0, 196619, -1441733, 0, 196619, -1441732, 0, 196619, -1441731, 0, 131074, -1376236, 0, 65537, -1376235, 0, 131072, -1376234, 0, 65538, -1376225, 0, 131073, -1376224, 0, 196619, -1376223, 0, 196619, -1376222, 0, 196619, -1376221, 0, 196619, -1376220, 0, 196619, -1376219, 0, 196619, -1376218, 0, 131074, -1376203, 0, 131073, -1376202, 0, 196619, -1376201, 0, 196619, -1376200, 0, 196619, -1376199, 0, 196619, -1376198, 0, 196619, -1376197, 0, 196619, -1376196, 0, 196619, -1376195, 0, 131074, -1310689, 0, 131073, -1310688, 0, 196619, -1310687, 0, 196619, -1310686, 0, 196619, -1310685, 0, 196619, -1310684, 0, 196619, -1310683, 0, 196619, -1310682, 0, 131074, -1310677, 0, 1, -1310676, 0, 65536, -1310675, 0, 65536, -1310674, 0, 65536, -1310673, 0, 2, -1310667, 0, 131073, -1310666, 0, 196619, -1310665, 0, 196619, -1310664, 0, 196619, -1310663, 0, 196619, -1310662, 0, 196619, -1310661, 0, 196619, -1310660, 0, 196619, -1310659, 0, 131074, -1245153, 0, 131073, -1245152, 0, 196619, -1245151, 0, 196619, -1245150, 0, 196619, -1245149, 0, 196619, -1245148, 0, 196619, -1245147, 0, 196619, -1245146, 0, 131074, -1245141, 0, 131073, -1245140, 0, 196619, -1245139, 0, 196619, -1245138, 0, 196619, -1245137, 0, 131074, -1245131, 0, 131073, -1245130, 0, 196619, -1245129, 0, 196619, -1245128, 0, 196619, -1245127, 0, 196619, -1245126, 0, 196619, -1245125, 0, 196619, -1245124, 0, 196619, -1245123, 0, 131074, -1179617, 0, 131073, -1179616, 0, 196619, -1179615, 0, 196619, -1179614, 0, 196619, -1179613, 0, 196619, -1179612, 0, 196619, -1179611, 0, 196619, -1179610, 0, 131074, -1179605, 0, 131073, -1179604, 0, 196619, -1179603, 0, 196619, -1179602, 0, 196619, -1179601, 0, 131074, -1179595, 0, 131073, -1179594, 0, 196619, -1179593, 0, 196619, -1179592, 0, 196619, -1179591, 0, 196619, -1179590, 0, 196619, -1179589, 0, 196619, -1179588, 0, 196619, -1179587, 0, 131074, -1114081, 0, 65537, -1114080, 0, 131072, -1114079, 0, 131072, -1114078, 0, 131072, -1114077, 0, 131072, -1114076, 0, 131072, -1114075, 0, 131072, -1114074, 0, 65538, -1114069, 0, 131073, -1114068, 0, 196619, -1114067, 0, 196619, -1114066, 0, 196619, -1114065, 0, 131074, -1114059, 0, 131073, -1114058, 0, 196619, -1114057, 0, 196619, -1114056, 0, 196619, -1114055, 0, 196619, -1114054, 0, 196619, -1114053, 0, 196619, -1114052, 0, 196619, -1114051, 0, 131074, -1048533, 0, 131073, -1048532, 0, 196619, -1048531, 0, 196619, -1048530, 0, 196619, -1048529, 0, 131074, -1048523, 0, 131073, -1048522, 0, 196619, -1048521, 0, 196619, -1048520, 0, 196619, -1048519, 0, 196619, -1048518, 0, 196619, -1048517, 0, 196619, -1048516, 0, 196619, -1048515, 0, 131074, -982997, 0, 131073, -982996, 0, 196619, -982995, 0, 196619, -982994, 0, 196619, -982993, 0, 131074, -982987, 0, 131073, -982986, 0, 196619, -982985, 0, 196619, -982984, 0, 196619, -982983, 0, 196619, -982982, 0, 196619, -982981, 0, 196619, -982980, 0, 196619, -982979, 0, 131074, -851985, 0, 1, -851984, 0, 65536, -851983, 0, 65536, -851982, 0, 65536, -851981, 0, 65536, -851980, 0, 65536, -851979, 0, 65536, -851978, 0, 65536, -851977, 0, 65536, -851976, 0, 65536, -851975, 0, 65536, -851974, 0, 65536, -851973, 0, 65536, -851972, 0, 2, -917477, 0, 5, -917469, 0, 5, -917461, 0, 131073, -917460, 0, 196619, -917459, 0, 196619, -917458, 0, 196619, -917457, 0, 131074, -917451, 0, 65537, -917450, 0, 131072, -917449, 0, 4, -917448, 0, 196619, -917447, 0, 196619, -917446, 0, 196619, -917445, 0, 196619, -917444, 0, 196619, -917443, 0, 131074, -786449, 0, 131073, -786448, 0, 196619, -786447, 0, 196619, -786446, 0, 196619, -786445, 0, 196619, -786444, 0, 196619, -786443, 0, 196619, -786442, 0, 196619, -786441, 0, 196619, -786440, 0, 196619, -786439, 0, 196619, -786438, 0, 196619, -786437, 0, 196619, -786436, 0, 131074, -851943, 0, 1, -851942, 0, 65536, -851941, 0, 131082, -851940, 0, 65536, -851939, 0, 65536, -851938, 0, 65536, -851937, 0, 65536, -851936, 0, 65536, -851935, 0, 65536, -851934, 0, 65536, -851933, 0, 131082, -851932, 0, 65536, -851931, 0, 65536, -851930, 0, 65536, -851929, 0, 65536, -851928, 0, 65536, -851927, 0, 65536, -851926, 0, 65536, -851925, 0, 65540, -851924, 0, 196619, -851923, 0, 196619, -851922, 0, 196619, -851921, 0, 131074, -851913, 0, 131073, -851912, 0, 196619, -851911, 0, 196619, -851910, 0, 196619, -851909, 0, 196619, -851908, 0, 196619, -851907, 0, 131074, -720913, 0, 131073, -720912, 0, 196619, -720911, 0, 196619, -720910, 0, 196619, -720909, 0, 196619, -720908, 0, 196619, -720907, 0, 196619, -720906, 0, 196619, -720905, 0, 196619, -720904, 0, 196619, -720903, 0, 196619, -720902, 0, 196619, -720901, 0, 196619, -720900, 0, 131074, -786407, 0, 131073, -786406, 0, 196619, -786405, 0, 196619, -786404, 0, 196619, -786403, 0, 196619, -786402, 0, 196619, -786401, 0, 196619, -786400, 0, 196619, -786399, 0, 196619, -786398, 0, 196619, -786397, 0, 196619, -786396, 0, 196619, -786395, 0, 196619, -786394, 0, 196619, -786393, 0, 196619, -786392, 0, 196619, -786391, 0, 196619, -786390, 0, 196619, -786389, 0, 196619, -786388, 0, 196619, -786387, 0, 196619, -786386, 0, 196619, -786385, 0, 65539, -786384, 0, 65536, -786383, 0, 2, -786377, 0, 131073, -786376, 0, 196619, -786375, 0, 196619, -786374, 0, 196619, -786373, 0, 196619, -786372, 0, 196619, -786371, 0, 131074, -655377, 0, 131073, -655376, 0, 196619, -655375, 0, 196619, -655374, 0, 196619, -655373, 0, 196619, -655372, 0, 196619, -655371, 0, 196619, -655370, 0, 196619, -655369, 0, 196619, -655368, 0, 196619, -655367, 0, 196619, -655366, 0, 196619, -655365, 0, 196619, -655364, 0, 131074, -720871, 0, 131073, -720870, 0, 196619, -720869, 0, 196619, -720868, 0, 196619, -720867, 0, 196619, -720866, 0, 196619, -720865, 0, 196619, -720864, 0, 196619, -720863, 0, 196619, -720862, 0, 196619, -720861, 0, 196619, -720860, 0, 196619, -720859, 0, 196619, -720858, 0, 196619, -720857, 0, 196619, -720856, 0, 196619, -720855, 0, 196619, -720854, 0, 196619, -720853, 0, 196619, -720852, 0, 196619, -720851, 0, 196619, -720850, 0, 196619, -720849, 0, 196619, -720848, 0, 196619, -720847, 0, 131074, -720841, 0, 131073, -720840, 0, 196619, -720839, 0, 196619, -720838, 0, 196619, -720837, 0, 196619, -720836, 0, 196619, -720835, 0, 131074, -589841, 0, 131073, -589840, 0, 196619, -589839, 0, 196619, -589838, 0, 196619, -589837, 0, 196619, -589836, 0, 196619, -589835, 0, 196619, -589834, 0, 196619, -589833, 0, 196619, -589832, 0, 196619, -589831, 0, 196619, -589830, 0, 196619, -589829, 0, 196619, -589828, 0, 131074, -655335, 0, 65537, -655334, 0, 131072, -655333, 0, 131072, -655332, 0, 131072, -655331, 0, 131072, -655330, 0, 131072, -655329, 0, 131072, -655328, 0, 131072, -655327, 0, 131072, -655326, 0, 131072, -655325, 0, 131072, -655324, 0, 131072, -655323, 0, 131072, -655322, 0, 131072, -655321, 0, 131072, -655320, 0, 131072, -655319, 0, 131072, -655318, 0, 131072, -655317, 0, 131072, -655316, 0, 131072, -655315, 0, 131072, -655314, 0, 131072, -655313, 0, 131072, -655312, 0, 4, -655311, 0, 65539, -655310, 0, 65536, -655309, 0, 2, -655305, 0, 131073, -655304, 0, 196619, -655303, 0, 196619, -655302, 0, 196619, -655301, 0, 196619, -655300, 0, 196619, -655299, 0, 131074, -524305, 0, 131073, -524304, 0, 196619, -524303, 0, 196619, -524302, 0, 196619, -524301, 0, 196619, -524300, 0, 196619, -524299, 0, 196619, -524298, 0, 196619, -524297, 0, 196619, -524296, 0, 196619, -524295, 0, 196619, -524294, 0, 196619, -524293, 0, 196619, -524292, 0, 131074, -589776, 0, 131073, -589775, 0, 196619, -589774, 0, 196619, -589773, 0, 131074, -589769, 0, 131073, -589768, 0, 196619, -589767, 0, 196619, -589766, 0, 196619, -589765, 0, 196619, -589764, 0, 196619, -589763, 0, 131074, -458769, 0, 131073, -458768, 0, 196619, -458767, 0, 196619, -458766, 0, 196619, -458765, 0, 196619, -458764, 0, 196619, -458763, 0, 196619, -458762, 0, 196619, -458761, 0, 196619, -458760, 0, 196619, -458759, 0, 196619, -458758, 0, 196619, -458757, 0, 196619, -458756, 0, 131074, -524240, 0, 131073, -524239, 0, 196619, -524238, 0, 196619, -524237, 0, 65539, -524236, 0, 65536, -524235, 0, 65536, -524234, 0, 65536, -524233, 0, 65540, -524232, 0, 196619, -524231, 0, 196619, -524230, 0, 196619, -524229, 0, 196619, -524228, 0, 196619, -524227, 0, 131074, -393233, 0, 131073, -393232, 0, 196619, -393231, 0, 196619, -393230, 0, 196619, -393229, 0, 196619, -393228, 0, 196619, -393227, 0, 196619, -393226, 0, 196619, -393225, 0, 196619, -393224, 0, 196619, -393223, 0, 196619, -393222, 0, 196619, -393221, 0, 196619, -393220, 0, 131074, -458704, 0, 65537, -458703, 0, 131072, -458702, 0, 131072, -458701, 0, 4, -458700, 0, 196619, -458699, 0, 196619, -458698, 0, 196619, -458697, 0, 196619, -458696, 0, 196619, -458695, 0, 196619, -458694, 0, 196619, -458693, 0, 196619, -458692, 0, 196619, -458691, 0, 131074, -327697, 0, 131073, -327696, 0, 196619, -327695, 0, 196619, -327694, 0, 196619, -327693, 0, 196619, -327692, 0, 196619, -327691, 0, 196619, -327690, 0, 196619, -327689, 0, 196619, -327688, 0, 196619, -327687, 0, 196619, -327686, 0, 196619, -327685, 0, 196619, -327684, 0, 131074, -393165, 0, 131073, -393164, 0, 196619, -393163, 0, 196619, -393162, 0, 196619, -393161, 0, 196619, -393160, 0, 196619, -393159, 0, 196619, -393158, 0, 196619, -393157, 0, 196619, -393156, 0, 196619, -393155, 0, 131074, -262161, 0, 131073, -262160, 0, 196619, -262159, 0, 196619, -262158, 0, 196619, -262157, 0, 196619, -262156, 0, 196619, -262155, 0, 196619, -262154, 0, 196619, -262153, 0, 196619, -262152, 0, 196619, -262151, 0, 196619, -262150, 0, 196619, -262149, 0, 196619, -262148, 0, 131074, -327629, 0, 131073, -327628, 0, 196619, -327627, 0, 196619, -327626, 0, 196619, -327625, 0, 196619, -327624, 0, 196619, -327623, 0, 196619, -327622, 0, 196619, -327621, 0, 196619, -327620, 0, 196619, -327619, 0, 131074, -196625, 0, 131073, -196624, 0, 196619, -196623, 0, 196619, -196622, 0, 196619, -196621, 0, 196619, -196620, 0, 196619, -196619, 0, 196619, -196618, 0, 196619, -196617, 0, 196619, -196616, 0, 196619, -196615, 0, 196619, -196614, 0, 196619, -196613, 0, 196619, -196612, 0, 131074, -262127, 0, 1, -262126, 0, 65536, -262125, 0, 65536, -262124, 0, 65536, -262123, 0, 65536, -262122, 0, 65536, -262121, 0, 65536, -262120, 0, 65536, -262119, 0, 2, -262116, 0, 1, -262115, 0, 2, -262112, 0, 1, -262111, 0, 65536, -262110, 0, 65536, -262109, 0, 65536, -262108, 0, 65536, -262107, 0, 65536, -262106, 0, 65536, -262105, 0, 2, -262101, 0, 196613, -262097, 0, 1, -262096, 0, 65536, -262095, 0, 65536, -262094, 0, 65536, -262093, 0, 65540, -262092, 0, 196619, -262091, 0, 196619, -262090, 0, 196619, -262089, 0, 196619, -262088, 0, 196619, -262087, 0, 196619, -262086, 0, 196619, -262085, 0, 196619, -262084, 0, 196619, -262083, 0, 131074, -131089, 0, 131073, -131088, 0, 196619, -131087, 0, 196619, -131086, 0, 196619, -131085, 0, 196619, -131084, 0, 196619, -131083, 0, 196619, -131082, 0, 196619, -131081, 0, 196619, -131080, 0, 196619, -131079, 0, 196619, -131078, 0, 196619, -131077, 0, 196619, -131076, 0, 131074, -196591, 0, 131073, -196590, 0, 196619, -196589, 0, 196619, -196588, 0, 196619, -196587, 0, 196619, -196586, 0, 196619, -196585, 0, 196619, -196584, 0, 196619, -196583, 0, 131074, -196580, 0, 131073, -196579, 0, 131074, -196576, 0, 131073, -196575, 0, 196619, -196574, 0, 196619, -196573, 0, 196619, -196572, 0, 196619, -196571, 0, 196619, -196570, 0, 196619, -196569, 0, 131074, -196561, 0, 131073, -196560, 0, 196619, -196559, 0, 196619, -196558, 0, 196619, -196557, 0, 196619, -196556, 0, 196619, -196555, 0, 196619, -196554, 0, 196619, -196553, 0, 196619, -196552, 0, 196619, -196551, 0, 196619, -196550, 0, 196619, -196549, 0, 196619, -196548, 0, 196619, -196547, 0, 131074, -65553, 0, 131073, -65552, 0, 196619, -65551, 0, 196619, -65550, 0, 196619, -65549, 0, 196619, -65548, 0, 196619, -65547, 0, 196619, -65546, 0, 196619, -65545, 0, 196619, -65544, 0, 196619, -65543, 0, 196619, -65542, 0, 196619, -65541, 0, 196619, -65540, 0, 131074, -131060, 0, 196608, -131059, 0, 196609, -131058, 0, 196610, -131055, 0, 131073, -131054, 0, 196619, -131053, 0, 196619, -131052, 0, 196619, -131051, 0, 196619, -131050, 0, 196619, -131049, 0, 196619, -131048, 0, 196619, -131047, 0, 131074, -131044, 0, 131073, -131043, 0, 131074, -131040, 0, 131073, -131039, 0, 196619, -131038, 0, 196619, -131037, 0, 196619, -131036, 0, 196619, -131035, 0, 196619, -131034, 0, 196619, -131033, 0, 131074, -131025, 0, 131073, -131024, 0, 196619, -131023, 0, 196619, -131022, 0, 196619, -131021, 0, 196619, -131020, 0, 196619, -131019, 0, 196619, -131018, 0, 196619, -131017, 0, 196619, -131016, 0, 196619, -131015, 0, 196619, -131014, 0, 196619, -131013, 0, 196619, -131012, 0, 196619, -131011, 0, 131074, -17, 0, 131073, -16, 0, 196619, -15, 0, 196619, -14, 0, 196619, -13, 0, 196619, -12, 0, 196619, -11, 0, 196619, -10, 0, 196619, -9, 0, 196619, -8, 0, 196619, -7, 0, 196619, -6, 0, 196619, -5, 0, 196619, -4, 0, 131074, -65519, 0, 131073, -65518, 0, 3, -65517, 0, 131072, -65516, 0, 131072, -65515, 0, 131072, -65514, 0, 131072, -65513, 0, 4, -65512, 0, 196619, -65511, 0, 131074, -65508, 0, 131073, -65507, 0, 131074, -65504, 0, 131073, -65503, 0, 196619, -65502, 0, 196619, -65501, 0, 196619, -65500, 0, 196619, -65499, 0, 196619, -65498, 0, 196619, -65497, 0, 131074, -65489, 0, 131073, -65488, 0, 196619, -65487, 0, 196619, -65486, 0, 196619, -65485, 0, 196619, -65484, 0, 196619, -65483, 0, 196619, -65482, 0, 196619, -65481, 0, 196619, -65480, 0, 196619, -65479, 0, 196619, -65478, 0, 196619, -65477, 0, 196619, -65476, 0, 196619, -65475, 0, 131074, 65519, 0, 131073, 65520, 0, 196619, 65521, 0, 196619, 65522, 0, 196619, 65523, 0, 196619, 65524, 0, 196619, 65525, 0, 196619, 65526, 0, 196619, 65527, 0, 196619, 65528, 0, 196619, 65529, 0, 196619, 65530, 0, 196619, 65531, 0, 196619, 65532, 0, 131074, 7, 0, 196608, 8, 0, 196609, 9, 0, 196610, 17, 0, 131073, 18, 0, 131074, 23, 0, 131073, 24, 0, 196619, 25, 0, 131074, 28, 0, 131073, 29, 0, 131074, 32, 0, 131073, 33, 0, 196619, 34, 0, 196619, 35, 0, 196619, 36, 0, 196619, 37, 0, 196619, 38, 0, 196619, 39, 0, 131074, 47, 0, 131073, 48, 0, 196619, 49, 0, 196619, 50, 0, 196619, 51, 0, 196619, 52, 0, 196619, 53, 0, 196619, 54, 0, 196619, 55, 0, 196619, 56, 0, 196619, 57, 0, 196619, 58, 0, 196619, 59, 0, 196619, 60, 0, 196619, 61, 0, 131074, 131055, 0, 131073, 131056, 0, 196619, 131057, 0, 196619, 131058, 0, 196619, 131059, 0, 196619, 131060, 0, 196619, 131061, 0, 196619, 131062, 0, 196619, 131063, 0, 196619, 131064, 0, 196619, 131065, 0, 196619, 131066, 0, 196619, 131067, 0, 196619, 131068, 0, 131074, 65553, 0, 65537, 65554, 0, 65538, 65559, 0, 131073, 65560, 0, 196619, 65561, 0, 131074, 65564, 0, 131073, 65565, 0, 131074, 65568, 0, 131073, 65569, 0, 196619, 65570, 0, 196619, 65571, 0, 196619, 65572, 0, 196619, 65573, 0, 196619, 65574, 0, 196619, 65575, 0, 131074, 65583, 0, 131073, 65584, 0, 196619, 65585, 0, 196619, 65586, 0, 196619, 65587, 0, 196619, 65588, 0, 196619, 65589, 0, 196619, 65590, 0, 196619, 65591, 0, 196619, 65592, 0, 196619, 65593, 0, 196619, 65594, 0, 196619, 65595, 0, 196619, 65596, 0, 196619, 65597, 0, 131074, 196591, 0, 131073, 196592, 0, 196619, 196593, 0, 196619, 196594, 0, 196619, 196595, 0, 196619, 196596, 0, 196619, 196597, 0, 196619, 196598, 0, 196619, 196599, 0, 196619, 196600, 0, 196619, 196601, 0, 196619, 196602, 0, 196619, 196603, 0, 196619, 196604, 0, 65539, 196605, 0, 65536, 196606, 0, 65536, 196607, 0, 65536, 131072, 0, 65536, 131073, 0, 65536, 131074, 0, 65536, 131075, 0, 65536, 131076, 0, 2, 131095, 0, 131073, 131096, 0, 196619, 131097, 0, 131074, 131100, 0, 131073, 131101, 0, 131074, 131104, 0, 131073, 131105, 0, 196619, 131106, 0, 196619, 131107, 0, 196619, 131108, 0, 196619, 131109, 0, 196619, 131110, 0, 196619, 131111, 0, 131074, 131119, 0, 131073, 131120, 0, 196619, 131121, 0, 196619, 131122, 0, 196619, 131123, 0, 196619, 131124, 0, 196619, 131125, 0, 196619, 131126, 0, 196619, 131127, 0, 196619, 131128, 0, 196619, 131129, 0, 196619, 131130, 0, 196619, 131131, 0, 196619, 131132, 0, 196619, 131133, 0, 131074, 262127, 0, 131073, 262128, 0, 196619, 262129, 0, 196619, 262130, 0, 196619, 262131, 0, 196619, 262132, 0, 196619, 262133, 0, 196619, 262134, 0, 196619, 262135, 0, 196619, 262136, 0, 196619, 262137, 0, 196619, 262138, 0, 196619, 262139, 0, 196619, 262140, 0, 196619, 262141, 0, 196619, 262142, 0, 196619, 262143, 0, 196619, 196608, 0, 196619, 196609, 0, 196619, 196610, 0, 196619, 196611, 0, 196619, 196612, 0, 131074, 196631, 0, 131073, 196632, 0, 196619, 196633, 0, 131074, 196636, 0, 131073, 196637, 0, 131074, 196640, 0, 131073, 196641, 0, 196619, 196642, 0, 196619, 196643, 0, 196619, 196644, 0, 196619, 196645, 0, 196619, 196646, 0, 196619, 196647, 0, 131074, 196655, 0, 131073, 196656, 0, 196619, 196657, 0, 196619, 196658, 0, 196619, 196659, 0, 196619, 196660, 0, 196619, 196661, 0, 196619, 196662, 0, 196619, 196663, 0, 196619, 196664, 0, 196619, 196665, 0, 196619, 196666, 0, 196619, 196667, 0, 196619, 196668, 0, 196619, 196669, 0, 131074, 327663, 0, 131073, 327664, 0, 196619, 327665, 0, 196619, 327666, 0, 196619, 327667, 0, 196619, 327668, 0, 196619, 327669, 0, 196619, 327670, 0, 196619, 327671, 0, 196619, 327672, 0, 196619, 327673, 0, 196619, 327674, 0, 196619, 327675, 0, 196619, 327676, 0, 196619, 327677, 0, 196619, 327678, 0, 196619, 327679, 0, 196619, 262144, 0, 196619, 262145, 0, 196619, 262146, 0, 196619, 262147, 0, 196619, 262148, 0, 65539, 262149, 0, 65536, 262150, 0, 65536, 262151, 0, 65536, 262152, 0, 65536, 262153, 0, 65536, 262154, 0, 65536, 262155, 0, 65536, 262156, 0, 65536, 262157, 0, 65536, 262158, 0, 65536, 262159, 0, 65536, 262160, 0, 65536, 262161, 0, 65536, 262162, 0, 65536, 262163, 0, 65536, 262164, 0, 65536, 262165, 0, 65536, 262166, 0, 65536, 262167, 0, 65540, 262168, 0, 196619, 262169, 0, 131074, 262172, 0, 131073, 262173, 0, 131074, 262176, 0, 131073, 262177, 0, 196619, 262178, 0, 196619, 262179, 0, 196619, 262180, 0, 196619, 262181, 0, 196619, 262182, 0, 196619, 262183, 0, 131074, 262191, 0, 131073, 262192, 0, 196619, 262193, 0, 196619, 262194, 0, 196619, 262195, 0, 196619, 262196, 0, 196619, 262197, 0, 196619, 262198, 0, 196619, 262199, 0, 196619, 262200, 0, 196619, 262201, 0, 196619, 262202, 0, 196619, 262203, 0, 196619, 262204, 0, 196619, 262205, 0, 131074, 393199, 0, 131073, 393200, 0, 196619, 393201, 0, 196619, 393202, 0, 196619, 393203, 0, 196619, 393204, 0, 196619, 393205, 0, 196619, 393206, 0, 196619, 393207, 0, 196619, 393208, 0, 196619, 393209, 0, 196619, 393210, 0, 196619, 393211, 0, 196619, 393212, 0, 196619, 393213, 0, 196619, 393214, 0, 196619, 393215, 0, 196619, 327680, 0, 196619, 327681, 0, 196619, 327682, 0, 196619, 327683, 0, 196619, 327684, 0, 196619, 327685, 0, 196619, 327686, 0, 196619, 327687, 0, 196619, 327688, 0, 196619, 327689, 0, 196619, 327690, 0, 196619, 327691, 0, 196619, 327692, 0, 196619, 327693, 0, 196619, 327694, 0, 196619, 327695, 0, 196619, 327696, 0, 196619, 327697, 0, 196619, 327698, 0, 196619, 327699, 0, 196619, 327700, 0, 196619, 327701, 0, 196619, 327702, 0, 196619, 327703, 0, 196619, 327704, 0, 196619, 327705, 0, 131074, 327708, 0, 131073, 327709, 0, 131074, 327712, 0, 131073, 327713, 0, 196619, 327714, 0, 196619, 327715, 0, 196619, 327716, 0, 196619, 327717, 0, 196619, 327718, 0, 196619, 327719, 0, 131074, 327727, 0, 131073, 327728, 0, 196619, 327729, 0, 196619, 327730, 0, 196619, 327731, 0, 196619, 327732, 0, 196619, 327733, 0, 196619, 327734, 0, 196619, 327735, 0, 196619, 327736, 0, 196619, 327737, 0, 196619, 327738, 0, 196619, 327739, 0, 196619, 327740, 0, 196619, 327741, 0, 131074, 458735, 0, 131073, 458736, 0, 196619, 458737, 0, 196619, 458738, 0, 196619, 458739, 0, 196619, 458740, 0, 196619, 458741, 0, 196619, 458742, 0, 196619, 458743, 0, 196619, 458744, 0, 196619, 458745, 0, 196619, 458746, 0, 196619, 458747, 0, 196619, 458748, 0, 196619, 458749, 0, 196619, 458750, 0, 196619, 458751, 0, 196619, 393216, 0, 196619, 393217, 0, 196619, 393218, 0, 196619, 393219, 0, 196619, 393220, 0, 196619, 393221, 0, 196619, 393222, 0, 196619, 393223, 0, 196619, 393224, 0, 196619, 393225, 0, 196619, 393226, 0, 196619, 393227, 0, 196619, 393228, 0, 196619, 393229, 0, 196619, 393230, 0, 196619, 393231, 0, 196619, 393232, 0, 196619, 393233, 0, 196619, 393234, 0, 196619, 393235, 0, 196619, 393236, 0, 196619, 393237, 0, 196619, 393238, 0, 196619, 393239, 0, 196619, 393240, 0, 196619, 393241, 0, 131074, 393244, 0, 131073, 393245, 0, 131074, 393248, 0, 131073, 393249, 0, 196619, 393250, 0, 196619, 393251, 0, 196619, 393252, 0, 196619, 393253, 0, 196619, 393254, 0, 196619, 393255, 0, 131074, 393263, 0, 131073, 393264, 0, 196619, 393265, 0, 196619, 393266, 0, 196619, 393267, 0, 196619, 393268, 0, 196619, 393269, 0, 196619, 393270, 0, 196619, 393271, 0, 196619, 393272, 0, 196619, 393273, 0, 196619, 393274, 0, 196619, 393275, 0, 196619, 393276, 0, 196619, 393277, 0, 131074, 524271, 0, 131073, 524272, 0, 196619, 524273, 0, 196619, 524274, 0, 196619, 524275, 0, 196619, 524276, 0, 196619, 524277, 0, 196619, 524278, 0, 196619, 524279, 0, 196619, 524280, 0, 196619, 524281, 0, 196619, 524282, 0, 196619, 524283, 0, 196619, 524284, 0, 196619, 524285, 0, 196619, 524286, 0, 196619, 524287, 0, 196619, 458752, 0, 196619, 458753, 0, 196619, 458754, 0, 196619, 458755, 0, 196619, 458756, 0, 196619, 458757, 0, 196619, 458758, 0, 196619, 458759, 0, 196619, 458760, 0, 196619, 458761, 0, 196619, 458762, 0, 196619, 458763, 0, 196619, 458764, 0, 196619, 458765, 0, 196619, 458766, 0, 196619, 458767, 0, 196619, 458768, 0, 196619, 458769, 0, 196619, 458770, 0, 196619, 458771, 0, 196619, 458772, 0, 196619, 458773, 0, 196619, 458774, 0, 196619, 458775, 0, 196619, 458776, 0, 196619, 458777, 0, 131074, 458780, 0, 131073, 458781, 0, 131074, 458784, 0, 131073, 458785, 0, 196619, 458786, 0, 196619, 458787, 0, 196619, 458788, 0, 196619, 458789, 0, 196619, 458790, 0, 196619, 458791, 0, 131074, 458799, 0, 131073, 458800, 0, 196619, 458801, 0, 196619, 458802, 0, 196619, 458803, 0, 196619, 458804, 0, 196619, 458805, 0, 196619, 458806, 0, 196619, 458807, 0, 196619, 458808, 0, 196619, 458809, 0, 196619, 458810, 0, 196619, 458811, 0, 196619, 458812, 0, 196619, 458813, 0, 131074, 589807, 0, 131073, 589808, 0, 196619, 589809, 0, 196619, 589810, 0, 196619, 589811, 0, 196619, 589812, 0, 196619, 589813, 0, 196619, 589814, 0, 196619, 589815, 0, 196619, 589816, 0, 196619, 589817, 0, 196619, 589818, 0, 196619, 589819, 0, 196619, 589820, 0, 196619, 589821, 0, 196619, 589822, 0, 196619, 589823, 0, 196619, 524288, 0, 196619, 524289, 0, 196619, 524290, 0, 196619, 524291, 0, 196619, 524292, 0, 196619, 524293, 0, 196619, 524294, 0, 196619, 524295, 0, 196619, 524296, 0, 196619, 524297, 0, 196619, 524298, 0, 196619, 524299, 0, 196619, 524300, 0, 196619, 524301, 0, 196619, 524302, 0, 196619, 524303, 0, 196619, 524304, 0, 196619, 524305, 0, 196619, 524306, 0, 196619, 524307, 0, 196619, 524308, 0, 196619, 524309, 0, 196619, 524310, 0, 196619, 524311, 0, 196619, 524312, 0, 196619, 524313, 0, 131074, 524316, 0, 131073, 524317, 0, 131074, 524320, 0, 131073, 524321, 0, 196619, 524322, 0, 196619, 524323, 0, 196619, 524324, 0, 196619, 524325, 0, 196619, 524326, 0, 196619, 524327, 0, 131074, 524335, 0, 131073, 524336, 0, 196619, 524337, 0, 196619, 524338, 0, 196619, 524339, 0, 196619, 524340, 0, 196619, 524341, 0, 196619, 524342, 0, 196619, 524343, 0, 196619, 524344, 0, 196619, 524345, 0, 196619, 524346, 0, 196619, 524347, 0, 196619, 524348, 0, 196619, 524349, 0, 131074, 655343, 0, 131073, 655344, 0, 196619, 655345, 0, 196619, 655346, 0, 196619, 655347, 0, 196619, 655348, 0, 196619, 655349, 0, 196619, 655350, 0, 196619, 655351, 0, 196619, 655352, 0, 196619, 655353, 0, 196619, 655354, 0, 196619, 655355, 0, 196619, 655356, 0, 196619, 655357, 0, 196619, 655358, 0, 196619, 655359, 0, 196619, 589824, 0, 196619, 589825, 0, 196619, 589826, 0, 196619, 589827, 0, 196619, 589828, 0, 196619, 589829, 0, 196619, 589830, 0, 196619, 589831, 0, 196619, 589832, 0, 196619, 589833, 0, 196619, 589834, 0, 196619, 589835, 0, 196619, 589836, 0, 196619, 589837, 0, 196619, 589838, 0, 196619, 589839, 0, 196619, 589840, 0, 196619, 589841, 0, 196619, 589842, 0, 196619, 589843, 0, 196619, 589844, 0, 196619, 589845, 0, 196619, 589846, 0, 196619, 589847, 0, 196619, 589848, 0, 196619, 589849, 0, 131074, 589852, 0, 131073, 589853, 0, 131074, 589856, 0, 131073, 589857, 0, 196619, 589858, 0, 196619, 589859, 0, 196619, 589860, 0, 196619, 589861, 0, 196619, 589862, 0, 196619, 589863, 0, 131074, 589871, 0, 131073, 589872, 0, 196619, 589873, 0, 196619, 589874, 0, 196619, 589875, 0, 196619, 589876, 0, 196619, 589877, 0, 196619, 589878, 0, 3, 589879, 0, 131072, 589880, 0, 131072, 589881, 0, 131072, 589882, 0, 131072, 589883, 0, 131072, 589884, 0, 131072, 589885, 0, 65538, 720879, 0, 131073, 720880, 0, 196619, 720881, 0, 196619, 720882, 0, 196619, 720883, 0, 196619, 720884, 0, 196619, 720885, 0, 196619, 720886, 0, 196619, 720887, 0, 196619, 720888, 0, 196619, 720889, 0, 196619, 720890, 0, 196619, 720891, 0, 196619, 720892, 0, 196619, 720893, 0, 196619, 720894, 0, 196619, 720895, 0, 196619, 655360, 0, 196619, 655361, 0, 196619, 655362, 0, 196619, 655363, 0, 196619, 655364, 0, 196619, 655365, 0, 196619, 655366, 0, 196619, 655367, 0, 196619, 655368, 0, 196619, 655369, 0, 196619, 655370, 0, 196619, 655371, 0, 196619, 655372, 0, 196619, 655373, 0, 196619, 655374, 0, 196619, 655375, 0, 196619, 655376, 0, 196619, 655377, 0, 196619, 655378, 0, 196619, 655379, 0, 196619, 655380, 0, 196619, 655381, 0, 196619, 655382, 0, 196619, 655383, 0, 196619, 655384, 0, 196619, 655385, 0, 131074, 655388, 0, 131073, 655389, 0, 131074, 655392, 0, 131073, 655393, 0, 196619, 655394, 0, 196619, 655395, 0, 196619, 655396, 0, 196619, 655397, 0, 196619, 655398, 0, 196619, 655399, 0, 131074, 655407, 0, 131073, 655408, 0, 196619, 655409, 0, 196619, 655410, 0, 196619, 655411, 0, 196619, 655412, 0, 196619, 655413, 0, 196619, 655414, 0, 131074, 786415, 0, 65537, 786416, 0, 131072, 786417, 0, 131072, 786418, 0, 131072, 786419, 0, 131072, 786420, 0, 131072, 786421, 0, 131072, 786422, 0, 131072, 786423, 0, 131072, 786424, 0, 131072, 786425, 0, 131072, 786426, 0, 131072, 786427, 0, 131072, 786428, 0, 131072, 786429, 0, 131072, 786430, 0, 131072, 786431, 0, 131072, 720896, 0, 131072, 720897, 0, 131072, 720898, 0, 131072, 720899, 0, 131072, 720900, 0, 131072, 720901, 0, 131072, 720902, 0, 131072, 720903, 0, 131072, 720904, 0, 131072, 720905, 0, 131072, 720906, 0, 131072, 720907, 0, 131072, 720908, 0, 131072, 720909, 0, 131072, 720910, 0, 131072, 720911, 0, 131072, 720912, 0, 131072, 720913, 0, 131072, 720914, 0, 131072, 720915, 0, 131072, 720916, 0, 131072, 720917, 0, 131072, 720918, 0, 131072, 720919, 0, 131072, 720920, 0, 131072, 720921, 0, 65538, 720924, 0, 65537, 720925, 0, 65538, 720928, 0, 65537, 720929, 0, 131072, 720930, 0, 131072, 720931, 0, 131072, 720932, 0, 131072, 720933, 0, 131072, 720934, 0, 131072, 720935, 0, 65538, 720943, 0, 65537, 720944, 0, 131072, 720945, 0, 131072, 720946, 0, 131072, 720947, 0, 131072, 720948, 0, 131072, 720949, 0, 131072, 720950, 0, 65538 )
_sections_unfolded = [ "Collision", "Material", "Transform", "Visibility" ]

[node name="PlayerStartingPosition" parent="Entities" index="0"]

editor/display_folded = true
PLAYER_SCN = ExtResource( 3 )

[node name="locked_door" parent="Entities" index="1" instance=ExtResource( 4 )]

modulate = Color( 0.325867, 1, 0.0820312, 1 )
position = Vector2( 576, 96 )
_sections_unfolded = [ "Collision", "Material", "Transform", "Visibility", "Z Index" ]
keys = 2

[node name="DeathZone" parent="Entities" index="2" instance=ExtResource( 5 )]

editor/display_folded = true
position = Vector2( 864, 160 )

[node name="CollisionShape2D" type="CollisionShape2D" parent="Entities/DeathZone" index="0"]

shape = SubResource( 1 )
_sections_unfolded = [ "Transform" ]

[node name="Polygon2D" type="Polygon2D" parent="Entities/DeathZone" index="1"]

polygon = PoolVector2Array( -32, -224, 32, -224, 32, 224, -32, 224, -32, -224 )
uv = PoolVector2Array(  )
color = Color( 1, 0.0976562, 0.0976562, 1 )
vertex_colors = PoolColorArray(  )
offset = Vector2( 0, 0 )
antialiased = false
texture = null
texture_offset = Vector2( 0, 0 )
texture_scale = Vector2( 1, 1 )
texture_rotation_degrees = 0.0
invert_enable = false
invert_border = 100.0

[node name="DeathZone2" parent="Entities" index="3" instance=ExtResource( 5 )]

editor/display_folded = true
position = Vector2( 992, 160 )

[node name="CollisionShape2D" type="CollisionShape2D" parent="Entities/DeathZone2" index="0"]

shape = SubResource( 1 )
_sections_unfolded = [ "Transform" ]

[node name="Polygon2D" type="Polygon2D" parent="Entities/DeathZone2" index="1"]

polygon = PoolVector2Array( -32, -224, 32, -224, 32, 224, -32, 224, -32, -224 )
uv = PoolVector2Array(  )
color = Color( 1, 0.0976562, 0.0976562, 1 )
vertex_colors = PoolColorArray(  )
offset = Vector2( 0, 0 )
antialiased = false
texture = null
texture_offset = Vector2( 0, 0 )
texture_scale = Vector2( 1, 1 )
texture_rotation_degrees = 0.0
invert_enable = false
invert_border = 100.0

[node name="DeathZone3" parent="Entities" index="4" instance=ExtResource( 5 )]

editor/display_folded = true
position = Vector2( 1392, 160 )

[node name="CollisionShape2D" type="CollisionShape2D" parent="Entities/DeathZone3" index="0"]

shape = SubResource( 2 )
_sections_unfolded = [ "Transform" ]

[node name="Polygon2D" type="Polygon2D" parent="Entities/DeathZone3" index="1"]

polygon = PoolVector2Array( 112, -224, 112, 224, -112, 224, -112, -224 )
uv = PoolVector2Array(  )
color = Color( 1, 0.0976562, 0.0976562, 1 )
vertex_colors = PoolColorArray(  )
offset = Vector2( 0, 0 )
antialiased = false
texture = null
texture_offset = Vector2( 0, 0 )
texture_scale = Vector2( 1, 1 )
texture_rotation_degrees = 0.0
invert_enable = false
invert_border = 100.0

[node name="door" parent="Entities" index="5" instance=ExtResource( 6 )]

position = Vector2( 1552, -160 )
scale = Vector2( 0.3125, 1 )
_sections_unfolded = [ "Collision", "Transform" ]

[node name="spawner" parent="Entities" index="6" instance=ExtResource( 7 )]

editor/display_folded = true
position = Vector2( 1104, -432 )
Entity = ExtResource( 8 )

[node name="Timer" type="Timer" parent="Entities/spawner" index="0"]

process_mode = 1
wait_time = 3.0
one_shot = false
autostart = true

[node name="Polygon2D" type="Polygon2D" parent="Entities/spawner" index="1"]

modulate = Color( 0.921875, 0.814743, 0.115234, 1 )
polygon = PoolVector2Array( -16, 0, 16, -16, 16, 16, -16, 0 )
uv = PoolVector2Array(  )
color = Color( 1, 1, 1, 1 )
vertex_colors = PoolColorArray(  )
offset = Vector2( 0, 0 )
antialiased = false
texture = null
texture_offset = Vector2( 0, 0 )
texture_scale = Vector2( 1, 1 )
texture_rotation_degrees = 0.0
invert_enable = false
invert_border = 100.0
_sections_unfolded = [ "Visibility" ]

[node name="spawner2" parent="Entities" index="7" instance=ExtResource( 7 )]

editor/display_folded = true
position = Vector2( 1360, -528 )
Entity = ExtResource( 8 )

[node name="Timer" type="Timer" parent="Entities/spawner2" index="0"]

process_mode = 1
wait_time = 3.0
one_shot = false
autostart = true

[node name="Polygon2D" type="Polygon2D" parent="Entities/spawner2" index="1"]

modulate = Color( 0.921875, 0.814743, 0.115234, 1 )
polygon = PoolVector2Array( -16, 0, 16, -16, 16, 16, -16, 0 )
uv = PoolVector2Array(  )
color = Color( 1, 1, 1, 1 )
vertex_colors = PoolColorArray(  )
offset = Vector2( 0, 0 )
antialiased = false
texture = null
texture_offset = Vector2( 0, 0 )
texture_scale = Vector2( 1, 1 )
texture_rotation_degrees = 0.0
invert_enable = false
invert_border = 100.0
_sections_unfolded = [ "Visibility" ]

[node name="spawner3" parent="Entities" index="8" instance=ExtResource( 7 )]

editor/display_folded = true
position = Vector2( 1680, -608 )
Entity = ExtResource( 8 )

[node name="Timer" type="Timer" parent="Entities/spawner3" index="0"]

process_mode = 1
wait_time = 3.0
one_shot = false
autostart = true

[node name="Polygon2D" type="Polygon2D" parent="Entities/spawner3" index="1"]

modulate = Color( 0.921875, 0.814743, 0.115234, 1 )
polygon = PoolVector2Array( -16, 0, 16, -16, 16, 16, -16, 0 )
uv = PoolVector2Array(  )
color = Color( 1, 1, 1, 1 )
vertex_colors = PoolColorArray(  )
offset = Vector2( 0, 0 )
antialiased = false
texture = null
texture_offset = Vector2( 0, 0 )
texture_scale = Vector2( 1, 1 )
texture_rotation_degrees = 0.0
invert_enable = false
invert_border = 100.0
_sections_unfolded = [ "Visibility" ]

[node name="spawner4" parent="Entities" index="9" instance=ExtResource( 7 )]

editor/display_folded = true
position = Vector2( 1680, -512 )
Entity = ExtResource( 8 )

[node name="Timer" type="Timer" parent="Entities/spawner4" index="0"]

process_mode = 1
wait_time = 3.0
one_shot = false
autostart = true

[node name="Polygon2D" type="Polygon2D" parent="Entities/spawner4" index="1"]

modulate = Color( 0.921875, 0.814743, 0.115234, 1 )
polygon = PoolVector2Array( -16, 0, 16, -16, 16, 16, -16, 0 )
uv = PoolVector2Array(  )
color = Color( 1, 1, 1, 1 )
vertex_colors = PoolColorArray(  )
offset = Vector2( 0, 0 )
antialiased = false
texture = null
texture_offset = Vector2( 0, 0 )
texture_scale = Vector2( 1, 1 )
texture_rotation_degrees = 0.0
invert_enable = false
invert_border = 100.0
_sections_unfolded = [ "Visibility" ]

[node name="Platform" parent="Entities" index="10" instance=ExtResource( 9 )]

position = Vector2( 688, -208 )

[node name="Platform2" parent="Entities" index="11" instance=ExtResource( 9 )]

position = Vector2( 688, -304 )

[node name="Platform3" parent="Entities" index="12" instance=ExtResource( 9 )]

position = Vector2( 688, -400 )

[node name="Platform4" parent="Entities" index="13" instance=ExtResource( 9 )]

position = Vector2( 1280, -480 )

[node name="Platform5" parent="Entities" index="14" instance=ExtResource( 9 )]

position = Vector2( 1280, -576 )

[node name="Platform6" parent="Entities" index="15" instance=ExtResource( 9 )]

position = Vector2( 1280, -672 )

[node name="Platform7" parent="Entities" index="16" instance=ExtResource( 9 )]

position = Vector2( 1568, -480 )

[node name="Platform8" parent="Entities" index="17" instance=ExtResource( 9 )]

position = Vector2( 1568, -576 )

[node name="switch" parent="Entities" index="18" instance=ExtResource( 10 )]

position = Vector2( 1728, -288 )

[node name="key" parent="Entities" index="19" instance=ExtResource( 11 )]

position = Vector2( 688, -736 )

[node name="key2" parent="Entities" index="20" instance=ExtResource( 11 )]

position = Vector2( 1600, -160 )

[node name="goal" parent="Entities" index="21" instance=ExtResource( 12 )]

position = Vector2( 672, 64 )

[node name="coin" parent="Entities" index="22" instance=ExtResource( 13 )]

position = Vector2( 240, -32 )

[node name="coin2" parent="Entities" index="23" instance=ExtResource( 13 )]

position = Vector2( 272, -32 )

[node name="coin3" parent="Entities" index="24" instance=ExtResource( 13 )]

position = Vector2( 304, -32 )

[node name="coin4" parent="Entities" index="25" instance=ExtResource( 13 )]

position = Vector2( 400, -96 )

[node name="coin5" parent="Entities" index="26" instance=ExtResource( 13 )]

position = Vector2( 432, -96 )

[node name="coin6" parent="Entities" index="27" instance=ExtResource( 13 )]

position = Vector2( 464, -96 )

[node name="coin7" parent="Entities" index="28" instance=ExtResource( 13 )]

position = Vector2( 848, -208 )

[node name="coin8" parent="Entities" index="29" instance=ExtResource( 13 )]

position = Vector2( 880, -208 )

[node name="coin9" parent="Entities" index="30" instance=ExtResource( 13 )]

position = Vector2( 880, -240 )

[node name="coin10" parent="Entities" index="31" instance=ExtResource( 13 )]

position = Vector2( 848, -240 )

[node name="coin11" parent="Entities" index="32" instance=ExtResource( 13 )]

position = Vector2( 976, -240 )

[node name="coin12" parent="Entities" index="33" instance=ExtResource( 13 )]

position = Vector2( 1008, -240 )

[node name="coin13" parent="Entities" index="34" instance=ExtResource( 13 )]

position = Vector2( 976, -208 )

[node name="coin14" parent="Entities" index="35" instance=ExtResource( 13 )]

position = Vector2( 1008, -208 )

[node name="coin16" parent="Entities" index="36" instance=ExtResource( 13 )]

position = Vector2( 1328, -224 )

[node name="coin19" parent="Entities" index="37" instance=ExtResource( 13 )]

position = Vector2( 1456, -224 )

[node name="coin21" parent="Entities" index="38" instance=ExtResource( 13 )]

position = Vector2( 592, -688 )

[node name="coin22" parent="Entities" index="39" instance=ExtResource( 13 )]

position = Vector2( 592, -640 )

[node name="coin23" parent="Entities" index="40" instance=ExtResource( 13 )]

position = Vector2( 592, -592 )

[node name="coin24" parent="Entities" index="41" instance=ExtResource( 13 )]

position = Vector2( 944, -448 )

[node name="coin25" parent="Entities" index="42" instance=ExtResource( 13 )]

position = Vector2( 976, -448 )

[node name="coin26" parent="Entities" index="43" instance=ExtResource( 13 )]

position = Vector2( 1040, -448 )

[node name="coin28" parent="Entities" index="44" instance=ExtResource( 13 )]

position = Vector2( 1072, -448 )

[node name="coin29" parent="Entities" index="45" instance=ExtResource( 13 )]

position = Vector2( 1280, -512 )

[node name="coin30" parent="Entities" index="46" instance=ExtResource( 13 )]

position = Vector2( 1280, -608 )

[node name="coin31" parent="Entities" index="47" instance=ExtResource( 13 )]

position = Vector2( 1280, -704 )

[node name="coin32" parent="Entities" index="48" instance=ExtResource( 13 )]

position = Vector2( 1568, -608 )

[node name="coin33" parent="Entities" index="49" instance=ExtResource( 13 )]

position = Vector2( 1568, -512 )

[node name="coin34" parent="Entities" index="50" instance=ExtResource( 13 )]

position = Vector2( 1200, -800 )

[node name="coin35" parent="Entities" index="51" instance=ExtResource( 13 )]

position = Vector2( 1136, -800 )

[node name="coin36" parent="Entities" index="52" instance=ExtResource( 13 )]

position = Vector2( 1072, -800 )

[node name="coin37" parent="Entities" index="53" instance=ExtResource( 13 )]

position = Vector2( 1104, -768 )

[node name="coin38" parent="Entities" index="54" instance=ExtResource( 13 )]

position = Vector2( 1168, -768 )

[node name="coin27" parent="Entities" index="55" instance=ExtResource( 13 )]

position = Vector2( 1008, -448 )

[connection signal="timeout" from="Entities/spawner/Timer" to="Entities/spawner" method="_spawn"]

[connection signal="timeout" from="Entities/spawner2/Timer" to="Entities/spawner2" method="_spawn"]

[connection signal="timeout" from="Entities/spawner3/Timer" to="Entities/spawner3" method="_spawn"]

[connection signal="timeout" from="Entities/spawner4/Timer" to="Entities/spawner4" method="_spawn"]

[connection signal="button_press" from="Entities/switch" to="Entities/door" method="_open"]


