[gd_scene load_steps=3 format=2]

[ext_resource path="res://entities/devices/door/door.gd" type="Script" id=1]

[sub_resource type="RectangleShape2D" id=1]

custom_solver_bias = 0.0
extents = Vector2( 32, 32 )

[node name="door" type="StaticBody2D"]

position = Vector2( 1.43051e-06, -9.53674e-07 )
scale = Vector2( 0.3125, 0.3125 )
input_pickable = false
collision_layer = 128
collision_mask = 0
constant_linear_velocity = Vector2( 0, 0 )
constant_angular_velocity = 0.0
friction = 1.0
bounce = 0.0
script = ExtResource( 1 )
_sections_unfolded = [ "Collision" ]
toggle = false
closed = true

[node name="Polygon2D" type="Polygon2D" parent="." index="0"]

position = Vector2( 11, 0 )
scale = Vector2( 2.1, 1 )
polygon = PoolVector2Array( -20.4762, -32, -20.4762, 32, 10, 32, 10, -32 )
uv = PoolVector2Array(  )
color = Color( 1, 1, 1, 1 )
vertex_colors = PoolColorArray(  )
offset = Vector2( 0, 0 )
antialiased = false
texture = null
texture_offset = Vector2( 0, 0 )
texture_scale = Vector2( 1, 1 )
texture_rotation_degrees = 0.0
invert_enable = false
invert_border = 100.0

[node name="CollisionShape2D" type="CollisionShape2D" parent="." index="1"]

shape = SubResource( 1 )


