[gd_scene load_steps=2 format=2]

[ext_resource path="res://tileset/tiles/tileset.png" type="Texture" id=1]

[node name="Autotile" type="Node2D"]

[node name="autotile" type="Sprite" parent="." index="0"]

texture = ExtResource( 1 )
_sections_unfolded = [ "Transform" ]


