[gd_scene load_steps=2 format=2]

[ext_resource path="res://managers/stage_manager/Stage_Controller.gd" type="Script" id=1]

[node name="Stage_Controller" type="Control"]

anchor_left = 0.0
anchor_top = 0.0
anchor_right = 0.0
anchor_bottom = 0.0
margin_right = 1024.0
margin_bottom = 600.0
rect_pivot_offset = Vector2( 0, 0 )
rect_clip_content = false
mouse_filter = 0
mouse_default_cursor_shape = 0
size_flags_horizontal = 1
size_flags_vertical = 1
script = ExtResource( 1 )
_sections_unfolded = [ "Rect" ]
stage_name = "test_stage"


